---
http_interactions:
- request:
    method: get
    uri: https://api.themoviedb.org/3/search/movie?api_key=<API Key>&page=1&query=spongebob
    body:
      encoding: US-ASCII
      string: ''
    headers:
      User-Agent:
      - Faraday v2.7.6
      Accept-Encoding:
      - gzip;q=1.0,deflate;q=0.6,identity;q=0.3
      Accept:
      - "*/*"
  response:
    status:
      code: 200
      message: OK
    headers:
      Content-Type:
      - application/json;charset=utf-8
      Transfer-Encoding:
      - chunked
      Connection:
      - keep-alive
      Date:
      - Wed, 14 Feb 2024 01:09:25 GMT
      Server:
      - openresty
      Cache-Control:
      - public, max-age=11159
      X-Memc:
      - HIT
      X-Memc-Key:
      - 4f8f035b150e014320f5fc7d062625f4
      X-Memc-Age:
      - '11157'
      X-Memc-Expires:
      - '11159'
      Etag:
      - W/"7ab2b865c31cd547578be6d495c35fdc"
      Vary:
      - Accept-Encoding
      - Origin
      X-Cache:
      - Hit from cloudfront
      Via:
      - 1.1 bcab77f1ffe9d73bbe5ff7a973cd0160.cloudfront.net (CloudFront)
      X-Amz-Cf-Pop:
      - DEN52-C1
      Alt-Svc:
      - h3=":443"; ma=86400
      X-Amz-Cf-Id:
      - yZMfA6WbMH-R9SuVo0Z_27LxJsZrwZu_ExO3UovJu9j4dX03cWEIeQ==
      Age:
      - '269'
    body:
      encoding: UTF-8
      string: '{"page":1,"results":[{"adult":false,"backdrop_path":"/wu1uilmhM4TdluKi2ytfz8gidHf.jpg","genre_ids":[10751,16,14,12,35],"id":400160,"original_language":"en","original_title":"The
        SpongeBob Movie: Sponge on the Run","overview":"When his best friend Gary
        is suddenly snatched away, SpongeBob takes Patrick on a madcap mission far
        beyond Bikini Bottom to save their pink-shelled pal.","popularity":61.132,"poster_path":"/jlJ8nDhMhCYJuzOw3f52CP1W8MW.jpg","release_date":"2020-08-14","title":"The
        SpongeBob Movie: Sponge on the Run","video":false,"vote_average":7.497,"vote_count":2764},{"adult":false,"backdrop_path":"/a2pORKd7quQ0kn4GhhwLwbGoDqz.jpg","genre_ids":[16,35,12],"id":1088812,"original_language":"en","original_title":"SpongeBob
        SquarePants Presents The Tidal Zone","overview":"GrandPat travels through
        alternate dimensions and timelines to get home.","popularity":31.521,"poster_path":"/c0LRmNW4Rsu5086CswtrueFoAdz.jpg","release_date":"2023-01-13","title":"SpongeBob
        SquarePants Presents The Tidal Zone","video":false,"vote_average":7.0,"vote_count":30},{"adult":false,"backdrop_path":"/i2fZIltljrhFPsUK9PN6O6ZE7M4.jpg","genre_ids":[10751,16,35,14,12],"id":11836,"original_language":"en","original_title":"The
        SpongeBob SquarePants Movie","overview":"There''s trouble brewing in Bikini
        Bottom. Someone has stolen King Neptune''s crown, and it looks like Mr. Krab,
        SpongeBob''s boss, is the culprit. Though he''s just been passed over for
        the promotion of his dreams, SpongeBob stands by his boss, and along with
        his best pal Patrick, sets out on a treacherous mission to Shell City to reclaim
        the crown and save Mr. Krab''s life.","popularity":59.453,"poster_path":"/gjZD811kfY1ideNuBukcuCy8ocA.jpg","release_date":"2004-11-14","title":"The
        SpongeBob SquarePants Movie","video":false,"vote_average":7.009,"vote_count":2707},{"adult":false,"backdrop_path":"/sqcqFzAj3IPSFprQSLHr5JOBU4m.jpg","genre_ids":[10751,12,35,14,16],"id":228165,"original_language":"en","original_title":"The
        SpongeBob Movie: Sponge Out of Water","overview":"Burger Beard is a pirate
        who is in search of the final page of a magical book that makes any evil plan
        he writes in it come true, which happens to be the Krabby Patty secret formula.
        When the entire city of Bikini Bottom is put in danger, SpongeBob, Patrick,
        Mr. Krabs, Squidward, Sandy, and Plankton need to go on a quest that takes
        them to the surface. In order to get back the recipe and save their city,
        the gang must retrieve the book and transform themselves into superheroes.","popularity":39.627,"poster_path":"/2WDmjUlSAPlA27i2OwEC7sRTFw3.jpg","release_date":"2015-01-28","title":"The
        SpongeBob Movie: Sponge Out of Water","video":false,"vote_average":6.065,"vote_count":2240},{"adult":false,"backdrop_path":"/AnHIt1uIUcG4Q5AF0ySowaUW67Z.jpg","genre_ids":[16],"id":345889,"original_language":"en","original_title":"SpongeBob
        SquarePants: To Love a Patty","overview":"To Love a Patty is a SpongeBob SquarePants
        DVD that contains seven episodes from Season 5. The DVD is based on the episode
        of the same name.","popularity":0.802,"poster_path":"/5cAc1rNJHdcI8SHGdYE0EjgGqAn.jpg","release_date":"2008-01-29","title":"SpongeBob
        SquarePants - To Love a Patty","video":true,"vote_average":6.9,"vote_count":7},{"adult":false,"backdrop_path":null,"genre_ids":[16],"id":299712,"original_language":"pt","original_title":"Spongebob
        Heroes of Bikini Bottom","overview":"Evildoers, and everyone else, beware!
        Mermaidman and Barnacleboy have opened their locker of memories for SpongeBob
        and Patrick (MISTAKE!), the Dirty Bubble, Man Ray, The Atomic Flounder and
        The Sinister Slug have gathered in Bikini Bottom, Mrs. Puff''s working the
        summer at the Krusty Krab, SpongeBob''s attempting to go a full day without
        crying, Gary''s new play pal Puffy Fluffy is a real terror, Squidward cleans
        up Bikini Bottom with \"help\" from SpongeBob, SpongeBob and Patrick try to
        share a toy, SpongeBob nearly ruins Mr. Krabs'' tightwad reputation at the
        Cheapest Crab Convention, and oceans more!","popularity":0.6,"poster_path":"/Od5JI8qicmBS0lCuowEsjP2P2b.jpg","release_date":"2011-10-29","title":"SpongeBob
        SquarePants: Heroes of Bikini Bottom","video":true,"vote_average":6.2,"vote_count":6},{"adult":false,"backdrop_path":null,"genre_ids":[16,10751],"id":358711,"original_language":"en","original_title":"SpongeBob
        SquarePants Halloween","overview":"A collection of spooky SpongeBob episodes
        from the series.","popularity":0.6,"poster_path":null,"release_date":"2002-08-27","title":"SpongeBob
        SquarePants: Halloween","video":true,"vote_average":7.0,"vote_count":7},{"adult":false,"backdrop_path":null,"genre_ids":[],"id":1189840,"original_language":"en","original_title":"SpongeBob:
        Sponge for Hire","overview":"","popularity":0.6,"poster_path":"/mrGx2XDAUdWramfKdYyemGJxYGs.jpg","release_date":"","title":"SpongeBob:
        Sponge for Hire","video":true,"vote_average":0.0,"vote_count":0},{"adult":false,"backdrop_path":"/pxo2c6WeVrQMpZaZvpgQGrHMUxH.jpg","genre_ids":[10751,16,35,10770],"id":298016,"original_language":"en","original_title":"It''s
        a SpongeBob Christmas!","overview":"At Christmastime in Bikini Bottom, everyone''s
        excited except Plankton, who always gets a lump of coal from Santa. But he
        vows this year he''ll finally get his wish – the Krabby Patty formula! And
        it won''t be by being good. He''s gonna make everyone in Bikini Bottom bad!","popularity":12.938,"poster_path":"/ewcwsytxHGoa3tIUdfwffzphuzc.jpg","release_date":"2012-12-06","title":"It''s
        a SpongeBob Christmas!","video":false,"vote_average":6.9,"vote_count":225},{"adult":false,"backdrop_path":"/few8Jr7oCE6bU0JjquBdXzTvwiL.jpg","genre_ids":[35,16],"id":991494,"original_language":"en","original_title":"The
        SpongeBob Movie: Search for SquarePants","overview":"The story follows SpongeBob,
        as he travels to the depths of the ocean and faces off against the ghost of
        the Flying Dutchman.","popularity":9.568,"poster_path":"/3pvzRic0jZkB6OzbdbzpGpkZSG0.jpg","release_date":"2025-12-19","title":"The
        SpongeBob Movie: Search for SquarePants","video":false,"vote_average":0.0,"vote_count":0},{"adult":false,"backdrop_path":"/ehE5tJW8o250FRZ7Hj2Q7qXxMJo.jpg","genre_ids":[10751,16,35,10770],"id":383525,"original_language":"en","original_title":"SpongeBob''s
        Truth or Square","overview":"It''s the Krusty Krab''s eleventy-seventh anniversary,
        and the nostalgia has SpongeBob, Squidward, Patrick, and Mr. Krabs looking
        back on key events in their lives. Right before the party begins, however,
        they all get locked in the freezer! With a hungry crowd and Plankton ready
        to steal the formula, they race through the air ducts to find a way out. Meanwhile,
        Patchy goes to Nickelodeon Studios to cast a star-studded 10th anniversary
        special. When the big event airs, however, he finds the guest of honor didn''t
        show up...SpongeBob himself.","popularity":3.56,"poster_path":"/5XCPg8DVN36vVdE7wOMns8ekVnJ.jpg","release_date":"2009-11-06","title":"SpongeBob''s
        Truth or Square","video":false,"vote_average":6.1,"vote_count":7},{"adult":false,"backdrop_path":"/2MGz166JSjiIgAg7ZVizbxCXWZ5.jpg","genre_ids":[14,16,35,10751],"id":281649,"original_language":"en","original_title":"SpongeBob
        SquarePants: Spongicus","overview":"Prepare to be blown back on your tail
        fins! Visit the Bikini Bottom Symphony, check out the Chum Bucket''s Rome-antic
        new look, see SpongeBob''s take on normal, hear Plankton''s new band, the
        Patty Stealers, take a trip to the Nautical Museum and more!","popularity":4.256,"poster_path":"/zyL7QGngIRKigzumIXcAr2gwp8D.jpg","release_date":"2009-01-27","title":"SpongeBob
        SquarePants: Spongicus","video":true,"vote_average":6.7,"vote_count":24},{"adult":false,"backdrop_path":"/3N1USkR8Akp23nZqwvsUfY6DmWN.jpg","genre_ids":[16,35],"id":448825,"original_language":"en","original_title":"SpongeBob
        SquarePants: Sea Side Story","overview":"Bikini Bottom''s baddest gang, the
        Sharks, just got a new member! But can SpongeBob prove that he isn''t as square
        as he looks when they face their rivals, the Pods? Soak up the action and
        7 more tales of nautical nonsense, including prophetic fortune cookies, Sandy''s
        newest food craze, countless SpongeBob clones and more!","popularity":4.083,"poster_path":"/kA0Dsum46Rp9RQXaBMrMvqEMNo.jpg","release_date":"2017-03-01","title":"SpongeBob
        SquarePants: Sea Side Story","video":true,"vote_average":7.5,"vote_count":21},{"adult":false,"backdrop_path":null,"genre_ids":[16,12,35],"id":336978,"original_language":"en","original_title":"SpongeBob
        Squarepants: Christmas","overview":"Featuring a variety of holiday-themed
        episodes from everyone’s favorite sea-dwelling sponge. Included are the double-length
        episodes \"Christmas Who,\" as well as \"Procrastination,\" \"The Snowball
        Effect,\" \"Survival of the Idiots,\" \"Mermaidman and Barnacleboy IV,\" \"Chocolate
        With Nuts,\" \"As Seen on TV,\" \"Pizza Delivery\" and \"The Squeaky Boots.\"","popularity":3.113,"poster_path":"/8IYzzycC2sYDbhEZwsOcZZVIlxN.jpg","release_date":"2003-09-30","title":"SpongeBob
        Squarepants: Christmas","video":true,"vote_average":7.8,"vote_count":15},{"adult":false,"backdrop_path":"/A46r7gbJK2MN6KMC1Whr3mi51BC.jpg","genre_ids":[16,10751,27,35],"id":1075004,"original_language":"en","original_title":"SpongeBob
        SquarePants: Ghouls Fools","overview":"Aye, this here set has the full spooky
        Halloween double-length-episode, GHOUL FOOLS, where SpongeBob and Patrick
        are caught in the middle of a ghostly feud, then meet the fancy knottin''
        champ of the last 3000 years, go on a treasure hunt and more! SpongeBob and
        Patrick find a houseboat haunted by a crew of ghost pirates--and get caught
        in the feud between them and the Flying Dutchman.","popularity":2.138,"poster_path":"/gav3bVIrgmd9fcS1ago6PElyzgK.jpg","release_date":"2011-10-21","title":"SpongeBob
        SquarePants: Ghouls Fools","video":true,"vote_average":0.0,"vote_count":0},{"adult":false,"backdrop_path":"/kaeSZ8u7239iLJGdC5AFRmAZnMC.jpg","genre_ids":[10751,16,10770],"id":336975,"original_language":"en","original_title":"SpongeBob''s
        Atlantis SquarePantis","overview":"SpongeBob and his pals are on the ultimate
        underwater adventure in SpongeBob SquarePants: Atlantis SquarePantis! Join
        them as they travel to Atlantis in search of \"The Oldest Living Bubble\"
        and other whacky adventures filled with outrageous fun!","popularity":4.287,"poster_path":"/oYiMhdTzhJ3NulRwqAQD12TVEl0.jpg","release_date":"2007-11-12","title":"SpongeBob''s
        Atlantis SquarePantis","video":true,"vote_average":6.7,"vote_count":15},{"adult":false,"backdrop_path":"/kXBm2RTGCF9NnD3LAUy3HcoG8hf.jpg","genre_ids":[10751,16,35,10770],"id":299078,"original_language":"en","original_title":"SpongeBob''s
        Frozen Face-Off","overview":"All of Bikini Bottom enters a sleigh race to
        win $1 million. While racing, they are attacked by the abominable snow mollusk.
        Plankton takes advantage of everyone being gone to steal the Krabby Patty
        secret formula.","popularity":2.513,"poster_path":"/boX9veaa90RtaFcdGSsAkzD0U5y.jpg","release_date":"2011-07-15","title":"SpongeBob''s
        Frozen Face-Off","video":true,"vote_average":7.4,"vote_count":15},{"adult":false,"backdrop_path":"/hznC6fqTDStjn6vQKZBcaoehby1.jpg","genre_ids":[10751,10402,35,10770],"id":651985,"original_language":"en","original_title":"The
        SpongeBob Musical: Live on Stage!","overview":"SpongeBob and all of Bikini
        Bottom face catastrophe—until a most unexpected hero rises to take center
        stage.","popularity":3.284,"poster_path":"/pbhA6MorVpzWozMgGKLpdyBn8vE.jpg","release_date":"2019-12-07","title":"The
        SpongeBob Musical: Live on Stage!","video":false,"vote_average":7.8,"vote_count":21},{"adult":false,"backdrop_path":"/bchCX9KERgnjHy8VyNnGbg9W2ae.jpg","genre_ids":[16],"id":303110,"original_language":"en","original_title":"Spongebob
        Squarepants: It Came from Goo Lagoon","overview":"It''s a special episode
        featuring a threatening giant purple ball of goo. Then, Plankton sabotages
        SpongeBob''s spatula, SpongeBob''s deepest secrets are revealed, Patrick wreaks
        havoc, and SpongeBob goes back to milkshake-making school.","popularity":2.314,"poster_path":"/hDVRBKV8ldr3IiaNJyo9gB5RMNe.jpg","release_date":"2014-11-07","title":"Spongebob
        Squarepants: It Came from Goo Lagoon","video":true,"vote_average":5.7,"vote_count":12},{"adult":false,"backdrop_path":"/j9ziYzenLoZBDA8eZulI7GYJHbz.jpg","genre_ids":[16,35,12],"id":1082435,"original_language":"en","original_title":"SpongeBob
        SquarePants 4-D: Ride","overview":"Patrick stole a pickle from Spongebob,
        but that''s not the real Patrick, that''s Robot Patrick. A robot that Plankton
        made to steal the secret formula. Then, Spongebob saves the day.","popularity":0.642,"poster_path":"/AolquLFvoSvaIjXiPPjGc9wlGJO.jpg","release_date":"2005-06-02","title":"SpongeBob
        SquarePants 4-D: Ride","video":false,"vote_average":0.0,"vote_count":0}],"total_pages":4,"total_results":74}'
  recorded_at: Wed, 14 Feb 2024 01:13:54 GMT
- request:
    method: get
    uri: https://api.themoviedb.org/3/search/movie?api_key=<API Key>&page=2&query=spongebob
    body:
      encoding: US-ASCII
      string: ''
    headers:
      User-Agent:
      - Faraday v2.7.6
      Accept-Encoding:
      - gzip;q=1.0,deflate;q=0.6,identity;q=0.3
      Accept:
      - "*/*"
  response:
    status:
      code: 200
      message: OK
    headers:
      Content-Type:
      - application/json;charset=utf-8
      Transfer-Encoding:
      - chunked
      Connection:
      - keep-alive
      Date:
      - Wed, 14 Feb 2024 01:09:25 GMT
      Server:
      - openresty
      Cache-Control:
      - public, max-age=8199
      X-Memc:
      - HIT
      X-Memc-Key:
      - 7b81dd40d87fad5bbe6a59c3a2633213
      X-Memc-Age:
      - '19149'
      X-Memc-Expires:
      - '8199'
      Etag:
      - W/"19682cdda1d920527b8594f670916e14"
      Vary:
      - Accept-Encoding
      - Origin
      X-Cache:
      - Hit from cloudfront
      Via:
      - 1.1 f923e65cfb5d73f11ea9a89d42fad5fc.cloudfront.net (CloudFront)
      X-Amz-Cf-Pop:
      - DEN52-C1
      Alt-Svc:
      - h3=":443"; ma=86400
      X-Amz-Cf-Id:
      - PtxkBcW13Wp5B7XS-H4kp_eoCD6QBCmZMqXNdnZzK8JJ98PflYGJyg==
      Age:
      - '269'
    body:
      encoding: UTF-8
      string: '{"page":2,"results":[{"adult":false,"backdrop_path":"/iLIxJ9YjKnfafBGqwUoFrkYG3nA.jpg","genre_ids":[10751,16,35,10770],"id":299082,"original_language":"en","original_title":"SpongeBob
        SquarePants: Spongebob''s Last Stand","overview":"In the never-before seen
        special episode, \"SpongeBob''s Last Stand\", all chaos breaks loose in Bikini
        Bottom when SpongeBob and Patrick hear that a new highway will be running
        through Jellyfish fields, outraged they decide to protest; SpongeBob style.","popularity":3.831,"poster_path":"/2mwMjhi3ermw5xskrrCVO17wwL4.jpg","release_date":"2010-03-16","title":"SpongeBob
        SquarePants: Spongebob''s Last Stand","video":true,"vote_average":8.7,"vote_count":3},{"adult":false,"backdrop_path":"/wtMsc1ytHmnEzIQFTMv7xVkWMIu.jpg","genre_ids":[35,16,10751],"id":733891,"original_language":"en","original_title":"SpongeBob
        SquarePants: Where''s Gary?","overview":"SpongeBob''s pet snail Gary runs
        away from home after feeling neglect from the distracted pet owner. After
        realizing his mistakes, SpongeBob and his best pal, Patrick, set out to search
        and find his adored pet snail and bring him back to his pineapple home.","popularity":2.494,"poster_path":"/tlMHtax7Cn6eZXNAjk4LIb0XUvj.jpg","release_date":"2005-11-11","title":"SpongeBob
        SquarePants: Where''s Gary?","video":true,"vote_average":8.0,"vote_count":10},{"adult":false,"backdrop_path":"/bD2PYUSh3xcwGzya5UD8KkM7uv8.jpg","genre_ids":[28,12,16,35],"id":444743,"original_language":"en","original_title":"SpongeBob
        \u0026 Friends: Patrick SquarePants","overview":"Patrick SquarePants is a
        SpongeBob SquarePants DVD featuring Patrick. It features episodes where Patrick
        plays a very big role. The DVD contains 3 episodes from Season 2, 1 episode
        from Season 3, 5 episodes from Season 4, 2 episodes from Season 7 and 3 episodes
        from Season 8.","popularity":3.085,"poster_path":null,"release_date":"2014-01-14","title":"SpongeBob
        \u0026 Friends: Patrick SquarePants","video":true,"vote_average":7.1,"vote_count":12},{"adult":false,"backdrop_path":null,"genre_ids":[16,10751],"id":286882,"original_language":"en","original_title":"Spongebob
        Squarepants: Spongebob Goes Prehistoric","overview":"It''s twice the underwater
        hilarity in a double-length feature episode with SpongeBob, Patrick and Squidward
        as three pioneering sea dwellers in the time before comedy (BC). \"SpongeBob
        Goes Prehistoric\" includes a double-length episode plus eight bonus episodes:
        SpongeBob BC, Nature Pants, Fools in April, I''m with Stupid, Patty Hype,
        Squid on Strike, The Great Snail Race, Plankton''s Arm, and Squilliam Returns.","popularity":1.619,"poster_path":"/u2jedWrVMg4cAI0W4TPx1MYauGA.jpg","release_date":"2004-03-09","title":"Spongebob
        Squarepants: Spongebob Goes Prehistoric","video":true,"vote_average":6.804,"vote_count":23},{"adult":false,"backdrop_path":null,"genre_ids":[16],"id":476537,"original_language":"en","original_title":"Spongebob
        Squarepants: Factory Fresh","overview":"","popularity":2.172,"poster_path":"/vXid0sOtfr8DlpFgIbgYPyhJnlq.jpg","release_date":"2017-09-22","title":"Spongebob
        Squarepants: Factory Fresh","video":true,"vote_average":5.8,"vote_count":8},{"adult":false,"backdrop_path":null,"genre_ids":[16,35,10751],"id":300173,"original_language":"en","original_title":"SpongeBob
        SquarePants: Triton''s Revenge","overview":"","popularity":3.622,"poster_path":"/dAoOB9vYCnmHhwI95K3CZqZWk5B.jpg","release_date":"2010-07-13","title":"SpongeBob
        SquarePants: Triton''s Revenge","video":true,"vote_average":7.2,"vote_count":11},{"adult":false,"backdrop_path":null,"genre_ids":[35,16],"id":440353,"original_language":"en","original_title":"SpongeBob
        SquarePants: Glove World Forever","overview":"Dive down to Bikini Bottom’s
        fun-tastic Glove World and soak up 10 seafaring episodes of SpongeBob SquarePants!
        Grab a glove balloon and join SpongeBob and Patrick as they face the Fiery
        Fist o’ Pain, get stuck in the Tunnel of Glove, and spend one last glorious
        day at the beloved park before it shuts down! Plus, join SpongeBob as he embraces
        his abrasive side, fails his driving test — again — and more! INCLUDES: Rock
        Bottom Roller Cowards The Abrasive Side Tunnel of Glove Glove World R.I.P.
        Are You Happy Now? Squiditis Bumper to Bumper Gary’s New Toy Kenny the Cat","popularity":1.564,"poster_path":"/f1sy5zB4cHGCv3vXM13FyoErmbR.jpg","release_date":"2016-03-11","title":"SpongeBob
        SquarePants: Glove World Forever","video":true,"vote_average":6.5,"vote_count":4},{"adult":false,"backdrop_path":null,"genre_ids":[16],"id":533185,"original_language":"en","original_title":"SpongeBob
        SquarePants - Nautical Nonsense and Sponge Buddies","overview":"10 Sea-Worthy
        Stores. Including Ripped Pants,\" SB-129,\" Texas,\" The Graveyard Shift,\"
        Something Smells,\" Jellyfishing,\" Dying for Pie,\" Wormy,\" F.U.N.\" and
        Club Spongebob.\"","popularity":2.261,"poster_path":"/yu97oqx372lviZqNnorbGDOrw7x.jpg","release_date":"2002-03-12","title":"SpongeBob
        SquarePants - Nautical Nonsense and Sponge Buddies","video":true,"vote_average":6.3,"vote_count":3},{"adult":false,"backdrop_path":"/jVuNNBERV7UjHwJmdftQxjpZUJO.jpg","genre_ids":[],"id":397698,"original_language":"en","original_title":"SpongeBob
        SquarePants: Pest of the West","overview":"Gather ‘round for a tale ‘bout
        SpongeBuck, a newbie who blew into Dead Eye Gulch fixin'' to be the new fry
        cook only to find himself sheriff and goin'' face-to-face, well, back-to-back
        since it was a duel, against the town''s most dastardly denizen, Dead Eye
        Plankton. Can good triumph over evil in the Old West? Can a sponge make it
        in a town when he''s outta food, water and lip balm?","popularity":0.878,"poster_path":"/gxhmZzG6j6LIwqq07uwc1ifMweU.jpg","release_date":"2008-04-10","title":"SpongeBob
        SquarePants: Pest of the West","video":true,"vote_average":0.0,"vote_count":0},{"adult":false,"backdrop_path":null,"genre_ids":[16],"id":435287,"original_language":"en","original_title":"Spongebob
        Squarepants Tales from the Deep","overview":"Includes episodes from \"Deep
        Sea Sillies\" \u0026 \"Bikini Bottom Bash\" videos!  Episodes include, \"House
        Party - Double Length Episode\", \"Hall Monitor\", \"I Had an Accident\",
        \"Valentines Day\", \"Just One Bite\", \"Mermaidman and Barnacleboy\", \"Tea
        at The Treedome\", \"The Paper\", \"Born Again Krabs\"","popularity":2.978,"poster_path":"/myR2T0icNgQMLhTEvKDBAqPOxaj.jpg","release_date":"2003-01-28","title":"Spongebob
        Squarepants Tales from the Deep","video":true,"vote_average":8.5,"vote_count":4},{"adult":false,"backdrop_path":"/30rShrB6Nc6Lu64qYTzkJpFmz0Z.jpg","genre_ids":[16,35,12],"id":782365,"original_language":"en","original_title":"Spongebob
        Square Pants: Bikini Bottom Buddies","overview":"","popularity":0.6,"poster_path":"/8RwKrAj4QkLliYvP80HaWMgDBz5.jpg","release_date":"2014-07-21","title":"Spongebob
        Square Pants: Bikini Bottom Buddies","video":true,"vote_average":1.0,"vote_count":1},{"adult":false,"backdrop_path":null,"genre_ids":[],"id":1157883,"original_language":"en","original_title":"Spongebob
        SquarePants: Deep Sea Sillies","overview":"Episodes include, \"Just One Bite\",
        \"Mermaidman and Barnacleboy\", \"Tea at The Treedome\", \"The Paper\", \"Born
        Again Krabs\".","popularity":1.757,"poster_path":"/wgr8z81c3WGBokIi9mz4cVJLkfw.jpg","release_date":"2003-01-28","title":"Spongebob
        SquarePants: Deep Sea Sillies","video":true,"vote_average":0.0,"vote_count":0},{"adult":false,"backdrop_path":null,"genre_ids":[16],"id":299702,"original_language":"en","original_title":"Spongebob
        Squarepants: Deep-Sea Games","overview":"12 more wacky adventures featuring
        the kind-hearted sea sponge and his friends Squidward, Mr Krabs, Patrick the
        Starfish, and Sandy the Squirrel. The episodes are: ''Extreme Spots'', ''The
        Fry Cook Games'', ''Karate Choppers'', ''A Friendly Game'', ''Jellyfishing'',
        ''Demolition Doofus'', ''Shuffleboarding'', ''Krusty Krushers'', ''A Life
        in the Day'', ''The Hot Shot'', ''Prehibernation Week'' and ''Musclebob Buffpants''.","popularity":0.824,"poster_path":null,"release_date":"1999-04-26","title":"Spongebob
        Squarepants: Deep-Sea Games","video":true,"vote_average":5.6,"vote_count":7},{"adult":false,"backdrop_path":null,"genre_ids":[],"id":305313,"original_language":"en","original_title":"SpongeBob
        SquarePants: Bizarro Bikini Bottom","overview":"You be embarkin'' on a journey
        of six salty tales including Gary and his new obsession, a nasty sea urchin
        at the Krusty Krab, a lesson in kah-rah-tay for Squidward, a few Kraby Patty
        formula theft attempts, and a cat that''s roaming Bikini Bottom.","popularity":0.6,"poster_path":"/rNhXeOV7Fjcc9xOMQpBsa3G1p92.jpg","release_date":"2014-11-01","title":"SpongeBob
        SquarePants: Bizarro Bikini Bottom","video":true,"vote_average":8.0,"vote_count":1},{"adult":false,"backdrop_path":null,"genre_ids":[16,35,10751],"id":355181,"original_language":"en","original_title":"Spongebob
        Squarepants: Pilot Mini-Movie","overview":"It''s deep-sea hilarity with SpongeBob
        and pals in a two-part mini-movie, 42 shorts AND the pilot episode! First,
        help the Krusty Krew make it to the restaurant''s anniversary party. Then
        enjoy a first-time collection of short episodes and the one that put SpongeBob
        on the map.","popularity":0.744,"poster_path":"/g6wF2D3uQE5a5dwFyhlRd9rEL8L.jpg","release_date":"2015-01-06","title":"Spongebob
        Squarepants: Pilot Mini-Movie","video":true,"vote_average":5.8,"vote_count":5},{"adult":false,"backdrop_path":null,"genre_ids":[],"id":1164260,"original_language":"en","original_title":"SpongeBob
        in Chabahar","overview":"The story of a lovely and charming character named
        \"Spongebob Squarepants\" who lives under the sea in a city called Bikini
        Bottom.","popularity":0.6,"poster_path":"/p1N1S1jswxYUZdpzOuhMwZXB3Ai.jpg","release_date":"2023-08-05","title":"SpongeBob
        in Chabahar","video":false,"vote_average":0.0,"vote_count":0},{"adult":false,"backdrop_path":null,"genre_ids":[],"id":1157877,"original_language":"en","original_title":"Spongebob
        SquarePants: Anchors Away","overview":"This five-episode collection kicks
        off with \"Mermaidman and Barnacleboy II,\" in which SpongeBob gets a chance
        to play superhero with two slightly geriatric TV idols (voiced by Ernest Borgnine
        and Tim Conway). Then tensions and tail fins flare in \"Bubble Buddy,\" as
        SpongeBob irks everyone with his provocative new best friend: a silent--yet
        rather demanding--bubble. Surprisingly witty, fast-paced humor and fresh,
        detailed animation make watching each quirky show a visual and auditory treat.
        But the great lure of SpongeBob is that his dilemmas relate equally well to
        young and old.","popularity":1.135,"poster_path":"/givKUvDlV3gESqQxLxofgLTQhCj.jpg","release_date":"2003-03-04","title":"Spongebob
        SquarePants: Anchors Away","video":true,"vote_average":0.0,"vote_count":0},{"adult":false,"backdrop_path":"/zd1zMWrr8OeOVQFgiaB9yAhMh4V.jpg","genre_ids":[16,12,35],"id":782256,"original_language":"en","original_title":"Spongebob
        Squarepants The Great Sleigh Race","overview":"","popularity":0.843,"poster_path":"/tqbV7kdQWwVIsx8j4G8pNqmsClD.jpg","release_date":"2011-01-01","title":"Spongebob
        Squarepants The Great Sleigh Race","video":false,"vote_average":0.0,"vote_count":0},{"adult":false,"backdrop_path":"/qWCLqvJcpzahFi2lcVTFGKtyqhZ.jpg","genre_ids":[10751],"id":892303,"original_language":"en","original_title":"SpongeBob
        SquarePants Halloween","overview":"SpongeBob and friends have an ocean full
        of spookiness to deal with in this five episode spooky compilation DVD special,
        including: Scaredy Pants, Imitation Krabs, Frankendoodle, I Was a Teenage
        Gary, and Squidward the Unfriendly Ghost. And five extra bubblin'' bonus episodes,
        including: The Secret Box, Band Geeks, Welcome to the Chum Bucket, My Pretty
        Seahorse, and Idiot Box.","popularity":0.76,"poster_path":"/rINH04lqf4mBqcH5RLfTAXRWuYD.jpg","release_date":"2002-08-27","title":"SpongeBob
        SquarePants Halloween","video":true,"vote_average":8.7,"vote_count":3},{"adult":false,"backdrop_path":null,"genre_ids":[16,35,10751],"id":1157881,"original_language":"en","original_title":"Spongebob
        SquarePants: Bikini Bottom Bash!","overview":"Episodes include, \"House Party
        - Double Length Episode\", \"Hall Monitor\", \"I Had an Accident\", \"Valentines
        Day\".","popularity":1.221,"poster_path":"/sv1kMaNXvttFCDR2PZlgg2fq2I5.jpg","release_date":"2003-01-28","title":"Spongebob
        SquarePants: Bikini Bottom Bash!","video":true,"vote_average":0.0,"vote_count":0}],"total_pages":4,"total_results":74}'
  recorded_at: Wed, 14 Feb 2024 01:13:54 GMT
recorded_with: VCR 6.1.0
